test-jumps.vcd
$date
	Sun Mar  3 13:36:43 2019
$end
$version
	Icarus Verilog
$end
$timescale
	1s
$end
$scope module test_control $end
$var wire 16 ! pc [15:0] $end
$upscope $end
$scope module test_control $end
$var reg 1 " clk $end
$upscope $end
$scope module test_control $end
$scope module jump $end
$var wire 1 " clk $end
$var wire 16 # immediate [15:0] $end
$var wire 5 $ op1 [4:0] $end
$var wire 5 % op2 [4:0] $end
$var wire 16 & reg1 [15:0] $end
$var wire 16 ' reg2 [15:0] $end
$var wire 16 ( next_pc [15:0] $end
$var reg 16 ) pc [15:0] $end
$var reg 4 * signal [3:0] $end
$scope module count $end
$var wire 4 + control_logic [3:0] $end
$var wire 16 , immediate [15:0] $end
$var wire 16 - new_pc [15:0] $end
$var wire 16 . pc [15:0] $end
$var wire 16 / reg1 [15:0] $end
$var wire 16 0 reg2 [15:0] $end
$var wire 16 1 reg1_vs_reg2 [15:0] $end
$var wire 16 2 pc_result [15:0] $end
$var wire 16 3 pc_inc_vs_immediate [15:0] $end
$var wire 16 4 pc_inc [15:0] $end
$var wire 1 5 compare_result $end
$scope module compare $end
$var wire 2 6 condition [1:0] $end
$var wire 16 7 value [15:0] $end
$var reg 1 5 result $end
$upscope $end
$scope module inc $end
$var wire 16 8 pc [15:0] $end
$var wire 16 9 newpc [15:0] $end
$upscope $end
$upscope $end
$upscope $end
$upscope $end
$enddefinitions $end
#0
$dumpvars
b1 9
b0 8
b0 7
b0 6
05
b1 4
b1 3
b1 2
b0 1
b1 0
b0 /
b0 .
b1 -
b111100001111 ,
b0 +
b0 *
b0 )
b1 (
b1 '
b0 &
b100 %
b100 $
b111100001111 #
0"
b0 !
$end
#2
b10 (
b10 -
b10 2
b10 3
b10 4
b10 9
b1 !
b1 )
b1 .
b1 8
1"
#3
0"
#4
b11 (
b11 -
b11 2
b11 3
b11 4
b11 9
b10 !
b10 )
b10 .
b10 8
1"
#5
0"
#6
b100 (
b100 -
b100 2
b100 3
b100 4
b100 9
b11 !
b11 )
b11 .
b11 8
1"
#7
0"
#8
b101 (
b101 -
b101 2
b101 3
b101 4
b101 9
b100 !
b100 )
b100 .
b100 8
1"
#9
0"
#10
b110 (
b110 -
b110 2
b110 3
b110 4
b110 9
b101 !
b101 )
b101 .
b101 8
1"
#11
0"
#12
b111 (
b111 -
b111 2
b111 3
b111 4
b111 9
b110 !
b110 )
b110 .
b110 8
1"
#13
0"
#14
b1000 (
b1000 -
b1000 2
b1000 3
b1000 4
b1000 9
b111 !
b111 )
b111 .
b111 8
1"
#15
0"
#16
b1001 (
b1001 -
b1001 2
b1001 3
b1001 4
b1001 9
b1000 !
b1000 )
b1000 .
b1000 8
1"
#17
0"
#18
b1010 (
b1010 -
b1010 2
b1010 3
b1010 4
b1010 9
b1001 !
b1001 )
b1001 .
b1001 8
1"
#19
0"
#20
b1011 4
b1011 9
b1010 !
b1010 )
b1010 .
b1010 8
b111100001111 (
b111100001111 -
b111100001111 2
b111100001111 3
15
b11 6
b11 *
b11 +
1"
b11011 $
#21
0"
#22
b111100010000 4
b111100010000 9
b111100001111 !
b111100001111 )
b111100001111 .
b111100001111 8
b111100010000 (
b111100010000 -
b111100010000 2
b111100010000 3
05
b0 6
b0 *
b0 +
1"
b100 $
#23
0"
#24
b111100010001 (
b111100010001 -
b111100010001 2
b111100010001 3
b111100010001 4
b111100010001 9
b111100010000 !
b111100010000 )
b111100010000 .
b111100010000 8
1"
#25
0"
#26
b111100010010 (
b111100010010 -
b111100010010 2
b111100010010 3
b111100010010 4
b111100010010 9
b111100010001 !
b111100010001 )
b111100010001 .
b111100010001 8
1"
#27
0"
#28
b111100010011 (
b111100010011 -
b111100010011 2
b111100010011 3
b111100010011 4
b111100010011 9
b111100010010 !
b111100010010 )
b111100010010 .
b111100010010 8
1"
#29
0"
#30
b111100010100 (
b111100010100 -
b111100010100 2
b111100010100 3
b111100010100 4
b111100010100 9
b111100010011 !
b111100010011 )
b111100010011 .
b111100010011 8
1"
#31
0"
#32
b111100010101 (
b111100010101 -
b111100010101 2
b111100010101 3
b111100010101 4
b111100010101 9
b111100010100 !
b111100010100 )
b111100010100 .
b111100010100 8
1"
#33
0"
#34
b111100010110 (
b111100010110 -
b111100010110 2
b111100010110 3
b111100010110 4
b111100010110 9
b111100010101 !
b111100010101 )
b111100010101 .
b111100010101 8
1"
#35
0"
#36
b111100010111 (
b111100010111 -
b111100010111 2
b111100010111 3
b111100010111 4
b111100010111 9
b111100010110 !
b111100010110 )
b111100010110 .
b111100010110 8
1"
#37
0"
#38
b111100011000 (
b111100011000 -
b111100011000 2
b111100011000 3
b111100011000 4
b111100011000 9
b111100010111 !
b111100010111 )
b111100010111 .
b111100010111 8
1"
#39
0"
#40
b111100011001 (
b111100011001 -
b111100011001 2
b111100011001 3
b111100011001 4
b111100011001 9
b111100011000 !
b111100011000 )
b111100011000 .
b111100011000 8
1"
#41
0"
#42
b111100011010 (
b111100011010 -
b111100011010 2
b111100011010 3
b111100011010 4
b111100011010 9
b111100011001 !
b111100011001 )
b111100011001 .
b111100011001 8
b10 6
b10 *
b10 +
1"
b11001 $
#43
0"
#44
b111100011011 (
b111100011011 -
b111100011011 2
b111100011011 3
b111100011011 4
b111100011011 9
b111100011010 !
b111100011010 )
b111100011010 .
b111100011010 8
b0 6
b0 *
b0 +
1"
b100 $
#45
0"
#46
b111100011100 (
b111100011100 -
b111100011100 2
b111100011100 3
b111100011100 4
b111100011100 9
b111100011011 !
b111100011011 )
b111100011011 .
b111100011011 8
b1 1
1"
b1 &
b1 /
b1 7
#47
0"
#48
b111100011101 (
b111100011101 -
b111100011101 2
b111100011101 3
b111100011101 4
b111100011101 9
b111100011100 !
b111100011100 )
b111100011100 .
b111100011100 8
1"
#49
0"
#50
b111100011110 (
b111100011110 -
b111100011110 2
b111100011110 3
b111100011110 4
b111100011110 9
b111100011101 !
b111100011101 )
b111100011101 .
b111100011101 8
1"
#51
0"
#52
b111100011111 (
b111100011111 -
b111100011111 2
b111100011111 3
b111100011111 4
b111100011111 9
b111100011110 !
b111100011110 )
b111100011110 .
b111100011110 8
1"
#53
0"
#54
b111100100000 (
b111100100000 -
b111100100000 2
b111100100000 3
b111100100000 4
b111100100000 9
b111100011111 !
b111100011111 )
b111100011111 .
b111100011111 8
1"
#55
0"
#56
b111100100001 (
b111100100001 -
b111100100001 2
b111100100001 3
b111100100001 4
b111100100001 9
b111100100000 !
b111100100000 )
b111100100000 .
b111100100000 8
1"
#57
0"
#58
b111100100010 (
b111100100010 -
b111100100010 2
b111100100010 3
b111100100010 4
b111100100010 9
b111100100001 !
b111100100001 )
b111100100001 .
b111100100001 8
1"
#59
0"
#60
b111100100011 (
b111100100011 -
b111100100011 2
b111100100011 3
b111100100011 4
b111100100011 9
b111100100010 !
b111100100010 )
b111100100010 .
b111100100010 8
1"
#61
0"
#62
b111100100100 (
b111100100100 -
b111100100100 2
b111100100100 3
b111100100100 4
b111100100100 9
b111100100011 !
b111100100011 )
b111100100011 .
b111100100011 8
1"
#63
0"
#64
b111100100101 (
b111100100101 -
b111100100101 2
b111100100101 3
b111100100101 4
b111100100101 9
b111100100100 !
b111100100100 )
b111100100100 .
b111100100100 8
1"
#65
0"
#66
b111100100110 4
b111100100110 9
b111100100101 !
b111100100101 )
b111100100101 .
b111100100101 8
b111100001111 (
b111100001111 -
b111100001111 2
b111100001111 3
15
b10 6
b10 *
b10 +
1"
b11001 $
#67
0"
#68
b111100010000 4
b111100010000 9
b111100001111 !
b111100001111 )
b111100001111 .
b111100001111 8
b111100010000 (
b111100010000 -
b111100010000 2
b111100010000 3
05
b0 6
b0 *
b0 +
1"
b100 $
#69
0"
#70
b111100010001 (
b111100010001 -
b111100010001 2
b111100010001 3
b111100010001 4
b111100010001 9
b111100010000 !
b111100010000 )
b111100010000 .
b111100010000 8
1"
#71
0"
#72
b111100010010 (
b111100010010 -
b111100010010 2
b111100010010 3
b111100010010 4
b111100010010 9
b111100010001 !
b111100010001 )
b111100010001 .
b111100010001 8
1"
#73
0"
#74
b111100010011 (
b111100010011 -
b111100010011 2
b111100010011 3
b111100010011 4
b111100010011 9
b111100010010 !
b111100010010 )
b111100010010 .
b111100010010 8
1"
#75
0"
#76
b111100010100 (
b111100010100 -
b111100010100 2
b111100010100 3
b111100010100 4
b111100010100 9
b111100010011 !
b111100010011 )
b111100010011 .
b111100010011 8
1"
#77
0"
#78
b111100010101 (
b111100010101 -
b111100010101 2
b111100010101 3
b111100010101 4
b111100010101 9
b111100010100 !
b111100010100 )
b111100010100 .
b111100010100 8
1"
#79
0"
#80
b111100010110 (
b111100010110 -
b111100010110 2
b111100010110 3
b111100010110 4
b111100010110 9
b111100010101 !
b111100010101 )
b111100010101 .
b111100010101 8
1"
#81
0"
#82
b111100010111 (
b111100010111 -
b111100010111 2
b111100010111 3
b111100010111 4
b111100010111 9
b111100010110 !
b111100010110 )
b111100010110 .
b111100010110 8
1"
#83
0"
#84
b111100011000 (
b111100011000 -
b111100011000 2
b111100011000 3
b111100011000 4
b111100011000 9
b111100010111 !
b111100010111 )
b111100010111 .
b111100010111 8
1"
#85
0"
#86
b111100011001 (
b111100011001 -
b111100011001 2
b111100011001 3
b111100011001 4
b111100011001 9
b111100011000 !
b111100011000 )
b111100011000 .
b111100011000 8
1"
#87
0"
#88
b111100011010 (
b111100011010 -
b111100011010 2
b111100011010 3
b111100011010 4
b111100011010 9
b111100011001 !
b111100011001 )
b111100011001 .
b111100011001 8
b1 6
b1 *
b1 +
1"
b11010 $
#89
0"
#90
b111100011011 (
b111100011011 -
b111100011011 2
b111100011011 3
b111100011011 4
b111100011011 9
b111100011010 !
b111100011010 )
b111100011010 .
b111100011010 8
b0 6
b0 *
b0 +
1"
b100 $
#91
0"
#92
b111100011100 (
b111100011100 -
b111100011100 2
b111100011100 3
b111100011100 4
b111100011100 9
b111100011011 !
b111100011011 )
b111100011011 .
b111100011011 8
b0 1
1"
b0 &
b0 /
b0 7
#93
0"
#94
b111100011101 (
b111100011101 -
b111100011101 2
b111100011101 3
b111100011101 4
b111100011101 9
b111100011100 !
b111100011100 )
b111100011100 .
b111100011100 8
1"
#95
0"
#96
b111100011110 (
b111100011110 -
b111100011110 2
b111100011110 3
b111100011110 4
b111100011110 9
b111100011101 !
b111100011101 )
b111100011101 .
b111100011101 8
1"
#97
0"
#98
b111100011111 (
b111100011111 -
b111100011111 2
b111100011111 3
b111100011111 4
b111100011111 9
b111100011110 !
b111100011110 )
b111100011110 .
b111100011110 8
1"
#99
0"
#100
b111100100000 (
b111100100000 -
b111100100000 2
b111100100000 3
b111100100000 4
b111100100000 9
b111100011111 !
b111100011111 )
b111100011111 .
b111100011111 8
1"
#101
0"
#102
b111100100001 (
b111100100001 -
b111100100001 2
b111100100001 3
b111100100001 4
b111100100001 9
b111100100000 !
b111100100000 )
b111100100000 .
b111100100000 8
1"
#103
0"
#104
b111100100010 (
b111100100010 -
b111100100010 2
b111100100010 3
b111100100010 4
b111100100010 9
b111100100001 !
b111100100001 )
b111100100001 .
b111100100001 8
1"
#105
0"
#106
b111100100011 (
b111100100011 -
b111100100011 2
b111100100011 3
b111100100011 4
b111100100011 9
b111100100010 !
b111100100010 )
b111100100010 .
b111100100010 8
1"
#107
0"
#108
b111100100100 (
b111100100100 -
b111100100100 2
b111100100100 3
b111100100100 4
b111100100100 9
b111100100011 !
b111100100011 )
b111100100011 .
b111100100011 8
1"
#109
0"
#110
b111100100101 (
b111100100101 -
b111100100101 2
b111100100101 3
b111100100101 4
b111100100101 9
b111100100100 !
b111100100100 )
b111100100100 .
b111100100100 8
1"
#111
0"
#112
b111100100110 4
b111100100110 9
b111100100101 !
b111100100101 )
b111100100101 .
b111100100101 8
b111100001111 (
b111100001111 -
b111100001111 2
b111100001111 3
15
b1 6
b1 *
b1 +
1"
b11010 $
#113
0"
#114
b111100010000 4
b111100010000 9
b111100001111 !
b111100001111 )
b111100001111 .
b111100001111 8
b111100010000 (
b111100010000 -
b111100010000 2
b111100010000 3
05
b0 6
b0 *
b0 +
1"
b100 $
#115
0"
#116
b111100010001 (
b111100010001 -
b111100010001 2
b111100010001 3
b111100010001 4
b111100010001 9
b111100010000 !
b111100010000 )
b111100010000 .
b111100010000 8
b111111110000 1
1"
b1111000000001111 '
b1111000000001111 0
b111111110000 &
b111111110000 /
b111111110000 7
#117
0"
#118
b111100010010 (
b111100010010 -
b111100010010 2
b111100010010 3
b111100010010 4
b111100010010 9
b111100010001 !
b111100010001 )
b111100010001 .
b111100010001 8
1"
#119
0"
#120
b111100010011 (
b111100010011 -
b111100010011 2
b111100010011 3
b111100010011 4
b111100010011 9
b111100010010 !
b111100010010 )
b111100010010 .
b111100010010 8
1"
#121
0"
#122
b111100010100 (
b111100010100 -
b111100010100 2
b111100010100 3
b111100010100 4
b111100010100 9
b111100010011 !
b111100010011 )
b111100010011 .
b111100010011 8
1"
#123
0"
#124
b111100010101 (
b111100010101 -
b111100010101 2
b111100010101 3
b111100010101 4
b111100010101 9
b111100010100 !
b111100010100 )
b111100010100 .
b111100010100 8
1"
#125
0"
#126
b111100010110 (
b111100010110 -
b111100010110 2
b111100010110 3
b111100010110 4
b111100010110 9
b111100010101 !
b111100010101 )
b111100010101 .
b111100010101 8
1"
#127
0"
#128
b111100010111 (
b111100010111 -
b111100010111 2
b111100010111 3
b111100010111 4
b111100010111 9
b111100010110 !
b111100010110 )
b111100010110 .
b111100010110 8
1"
#129
0"
#130
b111100011000 (
b111100011000 -
b111100011000 2
b111100011000 3
b111100011000 4
b111100011000 9
b111100010111 !
b111100010111 )
b111100010111 .
b111100010111 8
1"
#131
0"
#132
b111100011001 (
b111100011001 -
b111100011001 2
b111100011001 3
b111100011001 4
b111100011001 9
b111100011000 !
b111100011000 )
b111100011000 .
b111100011000 8
1"
#133
0"
#134
b111100011010 (
b111100011010 -
b111100011010 2
b111100011010 3
b111100011010 4
b111100011010 9
b111100011001 !
b111100011001 )
b111100011001 .
b111100011001 8
1"
#135
0"
#136
b111100011011 3
b111100011011 4
b111100011011 9
b111100011010 !
b111100011010 )
b111100011010 .
b111100011010 8
b111111110000 (
b111111110000 -
b111111110000 2
b1000 *
b1000 +
1"
b1010 $
#137
0"
#138
b111111110001 3
b111111110001 4
b111111110001 9
b111111110000 !
b111111110000 )
b111111110000 .
b111111110000 8
b111111110001 (
b111111110001 -
b111111110001 2
b0 *
b0 +
1"
b100 $
#139
0"
#140
b111111110010 (
b111111110010 -
b111111110010 2
b111111110010 3
b111111110010 4
b111111110010 9
b111111110001 !
b111111110001 )
b111111110001 .
b111111110001 8
1"
#141
0"
#142
b111111110011 (
b111111110011 -
b111111110011 2
b111111110011 3
b111111110011 4
b111111110011 9
b111111110010 !
b111111110010 )
b111111110010 .
b111111110010 8
1"
#143
0"
#144
b111111110100 (
b111111110100 -
b111111110100 2
b111111110100 3
b111111110100 4
b111111110100 9
b111111110011 !
b111111110011 )
b111111110011 .
b111111110011 8
1"
#145
0"
#146
b111111110101 (
b111111110101 -
b111111110101 2
b111111110101 3
b111111110101 4
b111111110101 9
b111111110100 !
b111111110100 )
b111111110100 .
b111111110100 8
1"
#147
0"
#148
b111111110110 (
b111111110110 -
b111111110110 2
b111111110110 3
b111111110110 4
b111111110110 9
b111111110101 !
b111111110101 )
b111111110101 .
b111111110101 8
1"
#149
0"
#150
b111111110111 (
b111111110111 -
b111111110111 2
b111111110111 3
b111111110111 4
b111111110111 9
b111111110110 !
b111111110110 )
b111111110110 .
b111111110110 8
1"
#151
0"
#152
b111111111000 (
b111111111000 -
b111111111000 2
b111111111000 3
b111111111000 4
b111111111000 9
b111111110111 !
b111111110111 )
b111111110111 .
b111111110111 8
1"
#153
0"
#154
b111111111001 (
b111111111001 -
b111111111001 2
b111111111001 3
b111111111001 4
b111111111001 9
b111111111000 !
b111111111000 )
b111111111000 .
b111111111000 8
1"
#155
0"
#156
b111111111010 (
b111111111010 -
b111111111010 2
b111111111010 3
b111111111010 4
b111111111010 9
b111111111001 !
b111111111001 )
b111111111001 .
b111111111001 8
1"
#157
0"
#158
b111111111011 3
b111111111011 4
b111111111011 9
b111111111010 !
b111111111010 )
b111111111010 .
b111111111010 8
b1111000000001111 1
b1111000000001111 (
b1111000000001111 -
b1111000000001111 2
b1100 *
b1100 +
1"
b1010 %
#159
0"
#160
b1111000000010000 3
b1111000000010000 4
b1111000000010000 9
b1111000000001111 !
b1111000000001111 )
b1111000000001111 .
b1111000000001111 8
b111111110000 1
b1111000000010000 (
b1111000000010000 -
b1111000000010000 2
b0 *
b0 +
1"
b100 %
#161
0"
#162
b1111000000010001 (
b1111000000010001 -
b1111000000010001 2
b1111000000010001 3
b1111000000010001 4
b1111000000010001 9
b1111000000010000 !
b1111000000010000 )
b1111000000010000 .
b1111000000010000 8
1"
#163
0"
#164
b1111000000010010 (
b1111000000010010 -
b1111000000010010 2
b1111000000010010 3
b1111000000010010 4
b1111000000010010 9
b1111000000010001 !
b1111000000010001 )
b1111000000010001 .
b1111000000010001 8
1"
#165
0"
#166
b1111000000010011 (
b1111000000010011 -
b1111000000010011 2
b1111000000010011 3
b1111000000010011 4
b1111000000010011 9
b1111000000010010 !
b1111000000010010 )
b1111000000010010 .
b1111000000010010 8
1"
#167
0"
#168
b1111000000010100 (
b1111000000010100 -
b1111000000010100 2
b1111000000010100 3
b1111000000010100 4
b1111000000010100 9
b1111000000010011 !
b1111000000010011 )
b1111000000010011 .
b1111000000010011 8
1"
#169
0"
#170
b1111000000010101 (
b1111000000010101 -
b1111000000010101 2
b1111000000010101 3
b1111000000010101 4
b1111000000010101 9
b1111000000010100 !
b1111000000010100 )
b1111000000010100 .
b1111000000010100 8
1"
#171
0"
#172
b1111000000010110 (
b1111000000010110 -
b1111000000010110 2
b1111000000010110 3
b1111000000010110 4
b1111000000010110 9
b1111000000010101 !
b1111000000010101 )
b1111000000010101 .
b1111000000010101 8
1"
#173
0"
#174
b1111000000010111 (
b1111000000010111 -
b1111000000010111 2
b1111000000010111 3
b1111000000010111 4
b1111000000010111 9
b1111000000010110 !
b1111000000010110 )
b1111000000010110 .
b1111000000010110 8
1"
#175
0"
#176
b1111000000011000 (
b1111000000011000 -
b1111000000011000 2
b1111000000011000 3
b1111000000011000 4
b1111000000011000 9
b1111000000010111 !
b1111000000010111 )
b1111000000010111 .
b1111000000010111 8
1"
#177
0"
#178
b1111000000011001 (
b1111000000011001 -
b1111000000011001 2
b1111000000011001 3
b1111000000011001 4
b1111000000011001 9
b1111000000011000 !
b1111000000011000 )
b1111000000011000 .
b1111000000011000 8
1"
#179
0"
#180
b1111000000011010 (
b1111000000011010 -
b1111000000011010 2
b1111000000011010 3
b1111000000011010 4
b1111000000011010 9
b1111000000011001 !
b1111000000011001 )
b1111000000011001 .
b1111000000011001 8
1"
