test-instruction-mem.vcd
$date
	Mon Mar  4 09:41:29 2019
$end
$version
	Icarus Verilog
$end
$timescale
	1s
$end
$scope module test_memory $end
$var wire 16 ! pc [15:0] $end
$upscope $end
$scope module test_memory $end
$var reg 1 " clk $end
$upscope $end
$scope module test_memory $end
$scope module jump $end
$var wire 1 " clk $end
$var wire 16 # immediate [15:0] $end
$var wire 5 $ op1 [4:0] $end
$var wire 5 % op2 [4:0] $end
$var wire 16 & reg1 [15:0] $end
$var wire 16 ' reg2 [15:0] $end
$var wire 16 ( next_pc [15:0] $end
$var reg 16 ) pc [15:0] $end
$var reg 4 * signal [3:0] $end
$scope module count $end
$var wire 4 + control_logic [3:0] $end
$var wire 16 , immediate [15:0] $end
$var wire 16 - new_pc [15:0] $end
$var wire 16 . pc [15:0] $end
$var wire 16 / reg1 [15:0] $end
$var wire 16 0 reg2 [15:0] $end
$var wire 16 1 reg1_vs_reg2 [15:0] $end
$var wire 16 2 pc_result [15:0] $end
$var wire 16 3 pc_inc_vs_immediate [15:0] $end
$var wire 16 4 pc_inc [15:0] $end
$var wire 1 5 compare_result $end
$scope module compare $end
$var wire 2 6 condition [1:0] $end
$var wire 16 7 value [15:0] $end
$var reg 1 5 result $end
$upscope $end
$scope module inc $end
$var wire 16 8 pc [15:0] $end
$var wire 16 9 newpc [15:0] $end
$upscope $end
$upscope $end
$upscope $end
$upscope $end
$scope module test_memory $end
$scope module instructions $end
$var wire 16 : instruction [15:0] $end
$upscope $end
$upscope $end
$enddefinitions $end
#0
$dumpvars
b111001000100011 :
b1 9
b0 8
b0 7
b0 6
05
b1 4
b1 3
b1 2
b0 1
b1 0
b0 /
b0 .
b1 -
b11000 ,
b0 +
b0 *
b0 )
b1 (
b1 '
b0 &
b100 %
b1110 $
b11000 #
0"
b0 !
$end
#2
b10 (
b10 -
b10 2
b10 3
b10000 %
b1 $
b10 4
b10 9
b110010000101 :
b1 !
b1 )
b1 .
b1 8
1"
#3
0"
#4
b11 (
b11 -
b11 2
b11 3
b11100 $
b11 4
b11 9
b1110011010000000 :
b10 !
b10 )
b10 .
b10 8
1"
#5
0"
#6
b100 (
b100 -
b100 2
b100 3
b11101 $
b100 4
b100 9
b1110111110000001 :
b11 !
b11 )
b11 .
b11 8
1"
#7
0"
#8
b1 1
b1 (
b1 -
b1 2
b1100 *
b1100 +
b101 3
b1010 %
b111 $
b101 4
b101 9
b11100001010001 :
b100 !
b100 )
b100 .
b100 8
1"
#9
0"
#10
b0 1
b10 (
b10 -
b10 2
b0 *
b0 +
b10 3
b10000 %
b1 $
b10 4
b10 9
b110010000101 :
b1 !
b1 )
b1 .
b1 8
1"
#11
0"
#12
b11 (
b11 -
b11 2
b11 3
b11100 $
b11 4
b11 9
b1110011010000000 :
b10 !
b10 )
b10 .
b10 8
1"
#13
0"
#14
b100 (
b100 -
b100 2
b100 3
b11101 $
b100 4
b100 9
b1110111110000001 :
b11 !
b11 )
b11 .
b11 8
1"
#15
0"
#16
b1 1
b1 (
b1 -
b1 2
b1100 *
b1100 +
b101 3
b1010 %
b111 $
b101 4
b101 9
b11100001010001 :
b100 !
b100 )
b100 .
b100 8
1"
#17
0"
#18
b0 1
b10 (
b10 -
b10 2
b0 *
b0 +
b10 3
b10000 %
b1 $
b10 4
b10 9
b110010000101 :
b1 !
b1 )
b1 .
b1 8
1"
#19
0"
#20
b11 (
b11 -
b11 2
b11 3
b11100 $
b11 4
b11 9
b1110011010000000 :
b10 !
b10 )
b10 .
b10 8
1"
b1000 '
b1000 0
#21
0"
#22
b100 (
b100 -
b100 2
b100 3
b11101 $
b100 4
b100 9
b1110111110000001 :
b11 !
b11 )
b11 .
b11 8
1"
#23
0"
#24
b1000 1
b1000 (
b1000 -
b1000 2
b1100 *
b1100 +
b101 3
b1010 %
b111 $
b101 4
b101 9
b11100001010001 :
b100 !
b100 )
b100 .
b100 8
1"
#25
0"
#26
b0 1
b1001 (
b1001 -
b1001 2
b0 *
b0 +
b1001 3
b110 %
b1011 $
b1001 4
b1001 9
b101110000110101 :
b1000 !
b1000 )
b1000 .
b1000 8
1"
#27
0"
#28
b1010 (
b1010 -
b1010 2
b1010 3
b0 %
b1100 $
b1010 4
b1010 9
b110011000000111 :
b1001 !
b1001 )
b1001 .
b1001 8
1"
#29
0"
#30
b1011 (
b1011 -
b1011 2
b1011 3
b1101 %
b10 $
b1011 4
b1011 9
b1000001101001 :
b1010 !
b1010 )
b1010 .
b1010 8
1"
#31
0"
#32
b1100 (
b1100 -
b1100 2
b1100 3
b10000 %
b11110 $
b1100 4
b1100 9
b1111011110000100 :
b1011 !
b1011 )
b1011 .
b1011 8
1"
#33
0"
#34
b1101 (
b1101 -
b1101 2
b1101 3
b1001 %
b1000 $
b1101 4
b1101 9
b100001001001011 :
b1100 !
b1100 )
b1100 .
b1100 8
1"
#35
0"
#36
b1110 (
b1110 -
b1110 2
b1110 3
b101 %
b1111 $
b1110 4
b1110 9
b111110000101101 :
b1101 !
b1101 )
b1101 .
b1101 8
1"
#37
0"
#38
b1111 (
b1111 -
b1111 2
b1111 3
b10000 %
b11111 $
b1111 4
b1111 9
b1111111110000101 :
b1110 !
b1110 )
b1110 .
b1110 8
1"
#39
0"
#40
b10000 (
b10000 -
b10000 2
b10000 3
b1110 %
b11 $
b10000 4
b10000 9
b1111001110111 :
b1111 !
b1111 )
b1111 .
b1111 8
1"
#41
0"
#42
b10001 (
b10001 -
b10001 2
b10001 3
b11111 %
b11110 $
b10001 4
b10001 9
b1111011111111111 :
b10000 !
b10000 )
b10000 .
b10000 8
1"
#43
0"
#44
b10010 (
b10010 -
b10010 2
b10010 3
b11100 $
b10010 4
b10010 9
b1110011011111111 :
b10001 !
b10001 )
b10001 .
b10001 8
1"
#45
0"
#46
b10011 (
b10011 -
b10011 2
b10011 3
b11110 %
b11110 $
b10011 4
b10011 9
b1111011111110000 :
b10010 !
b10010 )
b10010 .
b10010 8
1"
#47
0"
#48
b10100 (
b10100 -
b10100 2
b10100 3
b1 %
b11101 $
b10100 4
b10100 9
b1110111000001111 :
b10011 !
b10011 )
b10011 .
b10011 8
1"
#49
0"
#50
b10101 (
b10101 -
b10101 2
b10101 3
b11111 %
b11110 $
b10101 4
b10101 9
b1111011111111111 :
b10100 !
b10100 )
b10100 .
b10100 8
1"
#51
0"
#52
b10 6
b10110 (
b10110 -
b10110 2
b10 *
b10 +
b10110 3
b0 %
b11001 $
b10110 4
b10110 9
b1100111000000000 :
b10101 !
b10101 )
b10101 .
b10101 8
1"
#53
0"
#54
b0 6
b10111 (
b10111 -
b10111 2
b0 *
b0 +
b10111 3
b11111 %
b11110 $
b10111 4
b10111 9
b1111011111111111 :
b10110 !
b10110 )
b10110 .
b10110 8
1"
#55
0"
#56
15
b1 6
b11000 (
b11000 -
b11000 2
b1 *
b1 +
b11000 3
b11110 %
b11010 $
b11000 4
b11000 9
b1101011011110000 :
b10111 !
b10111 )
b10111 .
b10111 8
1"
#57
0"
#58
b11001 (
b11001 -
b11001 2
b11001 3
05
b0 6
b0 *
b0 +
b0 %
b11110 $
b11001 4
b11001 9
b1111011100000000 :
b11000 !
b11000 )
b11000 .
b11000 8
1"
#59
0"
#60
15
b11 6
b11000 (
b11000 -
b11000 2
b11 *
b11 +
b11000 3
b1 %
b11011 $
b11010 4
b11010 9
b1101111100001111 :
b11001 !
b11001 )
b11001 .
b11001 8
1"
#61
0"
#62
b11001 (
b11001 -
b11001 2
b11001 3
05
b0 6
b0 *
b0 +
b0 %
b11110 $
b11001 4
b11001 9
b1111011100000000 :
b11000 !
b11000 )
b11000 .
b11000 8
1"
#63
0"
#64
15
b11 6
b11000 (
b11000 -
b11000 2
b11 *
b11 +
b11000 3
b1 %
b11011 $
b11010 4
b11010 9
b1101111100001111 :
b11001 !
b11001 )
b11001 .
b11001 8
1"
#65
0"
#66
b11001 (
b11001 -
b11001 2
b11001 3
05
b0 6
b0 *
b0 +
b0 %
b11110 $
b11001 4
b11001 9
b1111011100000000 :
b11000 !
b11000 )
b11000 .
b11000 8
1"
#67
0"
#68
15
b11 6
b11000 (
b11000 -
b11000 2
b11 *
b11 +
b11000 3
b1 %
b11011 $
b11010 4
b11010 9
b1101111100001111 :
b11001 !
b11001 )
b11001 .
b11001 8
1"
#69
0"
#70
b11001 (
b11001 -
b11001 2
b11001 3
05
b0 6
b0 *
b0 +
b0 %
b11110 $
b11001 4
b11001 9
b1111011100000000 :
b11000 !
b11000 )
b11000 .
b11000 8
1"
#71
0"
#72
15
b11 6
b11000 (
b11000 -
b11000 2
b11 *
b11 +
b11000 3
b1 %
b11011 $
b11010 4
b11010 9
b1101111100001111 :
b11001 !
b11001 )
b11001 .
b11001 8
1"
#73
0"
#74
b11001 (
b11001 -
b11001 2
b11001 3
05
b0 6
b0 *
b0 +
b0 %
b11110 $
b11001 4
b11001 9
b1111011100000000 :
b11000 !
b11000 )
b11000 .
b11000 8
1"
#75
0"
#76
15
b11 6
b11000 (
b11000 -
b11000 2
b11 *
b11 +
b11000 3
b1 %
b11011 $
b11010 4
b11010 9
b1101111100001111 :
b11001 !
b11001 )
b11001 .
b11001 8
1"
#77
0"
#78
b11001 (
b11001 -
b11001 2
b11001 3
05
b0 6
b0 *
b0 +
b0 %
b11110 $
b11001 4
b11001 9
b1111011100000000 :
b11000 !
b11000 )
b11000 .
b11000 8
1"
#79
0"
#80
15
b11 6
b11000 (
b11000 -
b11000 2
b11 *
b11 +
b11000 3
b1 %
b11011 $
b11010 4
b11010 9
b1101111100001111 :
b11001 !
b11001 )
b11001 .
b11001 8
1"
#81
0"
#82
b11001 (
b11001 -
b11001 2
b11001 3
05
b0 6
b0 *
b0 +
b0 %
b11110 $
b11001 4
b11001 9
b1111011100000000 :
b11000 !
b11000 )
b11000 .
b11000 8
1"
#83
0"
#84
15
b11 6
b11000 (
b11000 -
b11000 2
b11 *
b11 +
b11000 3
b1 %
b11011 $
b11010 4
b11010 9
b1101111100001111 :
b11001 !
b11001 )
b11001 .
b11001 8
1"
#85
0"
#86
b11001 (
b11001 -
b11001 2
b11001 3
05
b0 6
b0 *
b0 +
b0 %
b11110 $
b11001 4
b11001 9
b1111011100000000 :
b11000 !
b11000 )
b11000 .
b11000 8
1"
#87
0"
#88
15
b11 6
b11000 (
b11000 -
b11000 2
b11 *
b11 +
b11000 3
b1 %
b11011 $
b11010 4
b11010 9
b1101111100001111 :
b11001 !
b11001 )
b11001 .
b11001 8
1"
#89
0"
#90
b11001 (
b11001 -
b11001 2
b11001 3
05
b0 6
b0 *
b0 +
b0 %
b11110 $
b11001 4
b11001 9
b1111011100000000 :
b11000 !
b11000 )
b11000 .
b11000 8
1"
#91
0"
#92
15
b11 6
b11000 (
b11000 -
b11000 2
b11 *
b11 +
b11000 3
b1 %
b11011 $
b11010 4
b11010 9
b1101111100001111 :
b11001 !
b11001 )
b11001 .
b11001 8
1"
#93
0"
#94
b11001 (
b11001 -
b11001 2
b11001 3
05
b0 6
b0 *
b0 +
b0 %
b11110 $
b11001 4
b11001 9
b1111011100000000 :
b11000 !
b11000 )
b11000 .
b11000 8
1"
#95
0"
#96
15
b11 6
b11000 (
b11000 -
b11000 2
b11 *
b11 +
b11000 3
b1 %
b11011 $
b11010 4
b11010 9
b1101111100001111 :
b11001 !
b11001 )
b11001 .
b11001 8
1"
#97
0"
#98
b11001 (
b11001 -
b11001 2
b11001 3
05
b0 6
b0 *
b0 +
b0 %
b11110 $
b11001 4
b11001 9
b1111011100000000 :
b11000 !
b11000 )
b11000 .
b11000 8
1"
#99
0"
#100
15
b11 6
b11000 (
b11000 -
b11000 2
b11 *
b11 +
b11000 3
b1 %
b11011 $
b11010 4
b11010 9
b1101111100001111 :
b11001 !
b11001 )
b11001 .
b11001 8
1"
#101
0"
#102
b11001 (
b11001 -
b11001 2
b11001 3
05
b0 6
b0 *
b0 +
b0 %
b11110 $
b11001 4
b11001 9
b1111011100000000 :
b11000 !
b11000 )
b11000 .
b11000 8
1"
#103
0"
#104
15
b11 6
b11000 (
b11000 -
b11000 2
b11 *
b11 +
b11000 3
b1 %
b11011 $
b11010 4
b11010 9
b1101111100001111 :
b11001 !
b11001 )
b11001 .
b11001 8
1"
#105
0"
#106
b11001 (
b11001 -
b11001 2
b11001 3
05
b0 6
b0 *
b0 +
b0 %
b11110 $
b11001 4
b11001 9
b1111011100000000 :
b11000 !
b11000 )
b11000 .
b11000 8
1"
#107
0"
#108
15
b11 6
b11000 (
b11000 -
b11000 2
b11 *
b11 +
b11000 3
b1 %
b11011 $
b11010 4
b11010 9
b1101111100001111 :
b11001 !
b11001 )
b11001 .
b11001 8
1"
#109
0"
#110
b11001 (
b11001 -
b11001 2
b11001 3
05
b0 6
b0 *
b0 +
b0 %
b11110 $
b11001 4
b11001 9
b1111011100000000 :
b11000 !
b11000 )
b11000 .
b11000 8
1"
#111
0"
#112
15
b11 6
b11000 (
b11000 -
b11000 2
b11 *
b11 +
b11000 3
b1 %
b11011 $
b11010 4
b11010 9
b1101111100001111 :
b11001 !
b11001 )
b11001 .
b11001 8
1"
#113
0"
#114
b11001 (
b11001 -
b11001 2
b11001 3
05
b0 6
b0 *
b0 +
b0 %
b11110 $
b11001 4
b11001 9
b1111011100000000 :
b11000 !
b11000 )
b11000 .
b11000 8
1"
#115
0"
#116
15
b11 6
b11000 (
b11000 -
b11000 2
b11 *
b11 +
b11000 3
b1 %
b11011 $
b11010 4
b11010 9
b1101111100001111 :
b11001 !
b11001 )
b11001 .
b11001 8
1"
#117
0"
#118
b11001 (
b11001 -
b11001 2
b11001 3
05
b0 6
b0 *
b0 +
b0 %
b11110 $
b11001 4
b11001 9
b1111011100000000 :
b11000 !
b11000 )
b11000 .
b11000 8
1"
#119
0"
#120
15
b11 6
b11000 (
b11000 -
b11000 2
b11 *
b11 +
b11000 3
b1 %
b11011 $
b11010 4
b11010 9
b1101111100001111 :
b11001 !
b11001 )
b11001 .
b11001 8
1"
#121
0"
#122
b11001 (
b11001 -
b11001 2
b11001 3
05
b0 6
b0 *
b0 +
b0 %
b11110 $
b11001 4
b11001 9
b1111011100000000 :
b11000 !
b11000 )
b11000 .
b11000 8
1"
#123
0"
#124
15
b11 6
b11000 (
b11000 -
b11000 2
b11 *
b11 +
b11000 3
b1 %
b11011 $
b11010 4
b11010 9
b1101111100001111 :
b11001 !
b11001 )
b11001 .
b11001 8
1"
#125
0"
#126
b11001 (
b11001 -
b11001 2
b11001 3
05
b0 6
b0 *
b0 +
b0 %
b11110 $
b11001 4
b11001 9
b1111011100000000 :
b11000 !
b11000 )
b11000 .
b11000 8
1"
#127
0"
#128
15
b11 6
b11000 (
b11000 -
b11000 2
b11 *
b11 +
b11000 3
b1 %
b11011 $
b11010 4
b11010 9
b1101111100001111 :
b11001 !
b11001 )
b11001 .
b11001 8
1"
#129
0"
#130
b11001 (
b11001 -
b11001 2
b11001 3
05
b0 6
b0 *
b0 +
b0 %
b11110 $
b11001 4
b11001 9
b1111011100000000 :
b11000 !
b11000 )
b11000 .
b11000 8
1"
#131
0"
#132
15
b11 6
b11000 (
b11000 -
b11000 2
b11 *
b11 +
b11000 3
b1 %
b11011 $
b11010 4
b11010 9
b1101111100001111 :
b11001 !
b11001 )
b11001 .
b11001 8
1"
#133
0"
#134
b11001 (
b11001 -
b11001 2
b11001 3
05
b0 6
b0 *
b0 +
b0 %
b11110 $
b11001 4
b11001 9
b1111011100000000 :
b11000 !
b11000 )
b11000 .
b11000 8
1"
#135
0"
#136
15
b11 6
b11000 (
b11000 -
b11000 2
b11 *
b11 +
b11000 3
b1 %
b11011 $
b11010 4
b11010 9
b1101111100001111 :
b11001 !
b11001 )
b11001 .
b11001 8
1"
#137
0"
#138
b11001 (
b11001 -
b11001 2
b11001 3
05
b0 6
b0 *
b0 +
b0 %
b11110 $
b11001 4
b11001 9
b1111011100000000 :
b11000 !
b11000 )
b11000 .
b11000 8
1"
#139
0"
#140
15
b11 6
b11000 (
b11000 -
b11000 2
b11 *
b11 +
b11000 3
b1 %
b11011 $
b11010 4
b11010 9
b1101111100001111 :
b11001 !
b11001 )
b11001 .
b11001 8
1"
#141
0"
#142
b11001 (
b11001 -
b11001 2
b11001 3
05
b0 6
b0 *
b0 +
b0 %
b11110 $
b11001 4
b11001 9
b1111011100000000 :
b11000 !
b11000 )
b11000 .
b11000 8
1"
#143
0"
#144
15
b11 6
b11000 (
b11000 -
b11000 2
b11 *
b11 +
b11000 3
b1 %
b11011 $
b11010 4
b11010 9
b1101111100001111 :
b11001 !
b11001 )
b11001 .
b11001 8
1"
#145
0"
#146
b11001 (
b11001 -
b11001 2
b11001 3
05
b0 6
b0 *
b0 +
b0 %
b11110 $
b11001 4
b11001 9
b1111011100000000 :
b11000 !
b11000 )
b11000 .
b11000 8
1"
#147
0"
#148
15
b11 6
b11000 (
b11000 -
b11000 2
b11 *
b11 +
b11000 3
b1 %
b11011 $
b11010 4
b11010 9
b1101111100001111 :
b11001 !
b11001 )
b11001 .
b11001 8
1"
#149
0"
#150
b11001 (
b11001 -
b11001 2
b11001 3
05
b0 6
b0 *
b0 +
b0 %
b11110 $
b11001 4
b11001 9
b1111011100000000 :
b11000 !
b11000 )
b11000 .
b11000 8
1"
#151
0"
#152
15
b11 6
b11000 (
b11000 -
b11000 2
b11 *
b11 +
b11000 3
b1 %
b11011 $
b11010 4
b11010 9
b1101111100001111 :
b11001 !
b11001 )
b11001 .
b11001 8
1"
#153
0"
#154
b11001 (
b11001 -
b11001 2
b11001 3
05
b0 6
b0 *
b0 +
b0 %
b11110 $
b11001 4
b11001 9
b1111011100000000 :
b11000 !
b11000 )
b11000 .
b11000 8
1"
#155
0"
#156
15
b11 6
b11000 (
b11000 -
b11000 2
b11 *
b11 +
b11000 3
b1 %
b11011 $
b11010 4
b11010 9
b1101111100001111 :
b11001 !
b11001 )
b11001 .
b11001 8
1"
#157
0"
#158
b11001 (
b11001 -
b11001 2
b11001 3
05
b0 6
b0 *
b0 +
b0 %
b11110 $
b11001 4
b11001 9
b1111011100000000 :
b11000 !
b11000 )
b11000 .
b11000 8
1"
#159
0"
#160
15
b11 6
b11000 (
b11000 -
b11000 2
b11 *
b11 +
b11000 3
b1 %
b11011 $
b11010 4
b11010 9
b1101111100001111 :
b11001 !
b11001 )
b11001 .
b11001 8
1"
#161
0"
#162
b11001 (
b11001 -
b11001 2
b11001 3
05
b0 6
b0 *
b0 +
b0 %
b11110 $
b11001 4
b11001 9
b1111011100000000 :
b11000 !
b11000 )
b11000 .
b11000 8
1"
#163
0"
#164
15
b11 6
b11000 (
b11000 -
b11000 2
b11 *
b11 +
b11000 3
b1 %
b11011 $
b11010 4
b11010 9
b1101111100001111 :
b11001 !
b11001 )
b11001 .
b11001 8
1"
#165
0"
#166
b11001 (
b11001 -
b11001 2
b11001 3
05
b0 6
b0 *
b0 +
b0 %
b11110 $
b11001 4
b11001 9
b1111011100000000 :
b11000 !
b11000 )
b11000 .
b11000 8
1"
#167
0"
#168
15
b11 6
b11000 (
b11000 -
b11000 2
b11 *
b11 +
b11000 3
b1 %
b11011 $
b11010 4
b11010 9
b1101111100001111 :
b11001 !
b11001 )
b11001 .
b11001 8
1"
#169
0"
#170
b11001 (
b11001 -
b11001 2
b11001 3
05
b0 6
b0 *
b0 +
b0 %
b11110 $
b11001 4
b11001 9
b1111011100000000 :
b11000 !
b11000 )
b11000 .
b11000 8
1"
#171
0"
#172
15
b11 6
b11000 (
b11000 -
b11000 2
b11 *
b11 +
b11000 3
b1 %
b11011 $
b11010 4
b11010 9
b1101111100001111 :
b11001 !
b11001 )
b11001 .
b11001 8
1"
#173
0"
#174
b11001 (
b11001 -
b11001 2
b11001 3
05
b0 6
b0 *
b0 +
b0 %
b11110 $
b11001 4
b11001 9
b1111011100000000 :
b11000 !
b11000 )
b11000 .
b11000 8
1"
#175
0"
#176
15
b11 6
b11000 (
b11000 -
b11000 2
b11 *
b11 +
b11000 3
b1 %
b11011 $
b11010 4
b11010 9
b1101111100001111 :
b11001 !
b11001 )
b11001 .
b11001 8
1"
#177
0"
#178
b11001 (
b11001 -
b11001 2
b11001 3
05
b0 6
b0 *
b0 +
b0 %
b11110 $
b11001 4
b11001 9
b1111011100000000 :
b11000 !
b11000 )
b11000 .
b11000 8
1"
#179
0"
#180
15
b11 6
b11000 (
b11000 -
b11000 2
b11 *
b11 +
b11000 3
b1 %
b11011 $
b11010 4
b11010 9
b1101111100001111 :
b11001 !
b11001 )
b11001 .
b11001 8
1"
#181
0"
#182
b11001 (
b11001 -
b11001 2
b11001 3
05
b0 6
b0 *
b0 +
b0 %
b11110 $
b11001 4
b11001 9
b1111011100000000 :
b11000 !
b11000 )
b11000 .
b11000 8
1"
#183
0"
#184
15
b11 6
b11000 (
b11000 -
b11000 2
b11 *
b11 +
b11000 3
b1 %
b11011 $
b11010 4
b11010 9
b1101111100001111 :
b11001 !
b11001 )
b11001 .
b11001 8
1"
#185
0"
#186
b11001 (
b11001 -
b11001 2
b11001 3
05
b0 6
b0 *
b0 +
b0 %
b11110 $
b11001 4
b11001 9
b1111011100000000 :
b11000 !
b11000 )
b11000 .
b11000 8
1"
#187
0"
#188
15
b11 6
b11000 (
b11000 -
b11000 2
b11 *
b11 +
b11000 3
b1 %
b11011 $
b11010 4
b11010 9
b1101111100001111 :
b11001 !
b11001 )
b11001 .
b11001 8
1"
#189
0"
#190
b11001 (
b11001 -
b11001 2
b11001 3
05
b0 6
b0 *
b0 +
b0 %
b11110 $
b11001 4
b11001 9
b1111011100000000 :
b11000 !
b11000 )
b11000 .
b11000 8
1"
#191
0"
#192
15
b11 6
b11000 (
b11000 -
b11000 2
b11 *
b11 +
b11000 3
b1 %
b11011 $
b11010 4
b11010 9
b1101111100001111 :
b11001 !
b11001 )
b11001 .
b11001 8
1"
#193
0"
#194
b11001 (
b11001 -
b11001 2
b11001 3
05
b0 6
b0 *
b0 +
b0 %
b11110 $
b11001 4
b11001 9
b1111011100000000 :
b11000 !
b11000 )
b11000 .
b11000 8
1"
#195
0"
#196
15
b11 6
b11000 (
b11000 -
b11000 2
b11 *
b11 +
b11000 3
b1 %
b11011 $
b11010 4
b11010 9
b1101111100001111 :
b11001 !
b11001 )
b11001 .
b11001 8
1"
#197
0"
#198
b11001 (
b11001 -
b11001 2
b11001 3
05
b0 6
b0 *
b0 +
b0 %
b11110 $
b11001 4
b11001 9
b1111011100000000 :
b11000 !
b11000 )
b11000 .
b11000 8
1"
#199
0"
#200
15
b11 6
b11000 (
b11000 -
b11000 2
b11 *
b11 +
b11000 3
b1 %
b11011 $
b11010 4
b11010 9
b1101111100001111 :
b11001 !
b11001 )
b11001 .
b11001 8
1"
#201
0"
#202
b11001 (
b11001 -
b11001 2
b11001 3
05
b0 6
b0 *
b0 +
b0 %
b11110 $
b11001 4
b11001 9
b1111011100000000 :
b11000 !
b11000 )
b11000 .
b11000 8
1"
#203
0"
#204
15
b11 6
b11000 (
b11000 -
b11000 2
b11 *
b11 +
b11000 3
b1 %
b11011 $
b11010 4
b11010 9
b1101111100001111 :
b11001 !
b11001 )
b11001 .
b11001 8
1"
#205
0"
#206
b11001 (
b11001 -
b11001 2
b11001 3
05
b0 6
b0 *
b0 +
b0 %
b11110 $
b11001 4
b11001 9
b1111011100000000 :
b11000 !
b11000 )
b11000 .
b11000 8
1"
#207
0"
#208
15
b11 6
b11000 (
b11000 -
b11000 2
b11 *
b11 +
b11000 3
b1 %
b11011 $
b11010 4
b11010 9
b1101111100001111 :
b11001 !
b11001 )
b11001 .
b11001 8
1"
#209
0"
#210
b11001 (
b11001 -
b11001 2
b11001 3
05
b0 6
b0 *
b0 +
b0 %
b11110 $
b11001 4
b11001 9
b1111011100000000 :
b11000 !
b11000 )
b11000 .
b11000 8
1"
#211
0"
#212
15
b11 6
b11000 (
b11000 -
b11000 2
b11 *
b11 +
b11000 3
b1 %
b11011 $
b11010 4
b11010 9
b1101111100001111 :
b11001 !
b11001 )
b11001 .
b11001 8
1"
#213
0"
#214
b11001 (
b11001 -
b11001 2
b11001 3
05
b0 6
b0 *
b0 +
b0 %
b11110 $
b11001 4
b11001 9
b1111011100000000 :
b11000 !
b11000 )
b11000 .
b11000 8
1"
#215
0"
#216
15
b11 6
b11000 (
b11000 -
b11000 2
b11 *
b11 +
b11000 3
b1 %
b11011 $
b11010 4
b11010 9
b1101111100001111 :
b11001 !
b11001 )
b11001 .
b11001 8
1"
#217
0"
#218
b11001 (
b11001 -
b11001 2
b11001 3
05
b0 6
b0 *
b0 +
b0 %
b11110 $
b11001 4
b11001 9
b1111011100000000 :
b11000 !
b11000 )
b11000 .
b11000 8
1"
#219
0"
#220
15
b11 6
b11000 (
b11000 -
b11000 2
b11 *
b11 +
b11000 3
b1 %
b11011 $
b11010 4
b11010 9
b1101111100001111 :
b11001 !
b11001 )
b11001 .
b11001 8
1"
#221
0"
#222
b11001 (
b11001 -
b11001 2
b11001 3
05
b0 6
b0 *
b0 +
b0 %
b11110 $
b11001 4
b11001 9
b1111011100000000 :
b11000 !
b11000 )
b11000 .
b11000 8
1"
#223
0"
#224
15
b11 6
b11000 (
b11000 -
b11000 2
b11 *
b11 +
b11000 3
b1 %
b11011 $
b11010 4
b11010 9
b1101111100001111 :
b11001 !
b11001 )
b11001 .
b11001 8
1"
#225
0"
#226
b11001 (
b11001 -
b11001 2
b11001 3
05
b0 6
b0 *
b0 +
b0 %
b11110 $
b11001 4
b11001 9
b1111011100000000 :
b11000 !
b11000 )
b11000 .
b11000 8
1"
#227
0"
#228
15
b11 6
b11000 (
b11000 -
b11000 2
b11 *
b11 +
b11000 3
b1 %
b11011 $
b11010 4
b11010 9
b1101111100001111 :
b11001 !
b11001 )
b11001 .
b11001 8
1"
#229
0"
#230
b11001 (
b11001 -
b11001 2
b11001 3
05
b0 6
b0 *
b0 +
b0 %
b11110 $
b11001 4
b11001 9
b1111011100000000 :
b11000 !
b11000 )
b11000 .
b11000 8
1"
#231
0"
#232
15
b11 6
b11000 (
b11000 -
b11000 2
b11 *
b11 +
b11000 3
b1 %
b11011 $
b11010 4
b11010 9
b1101111100001111 :
b11001 !
b11001 )
b11001 .
b11001 8
1"
#233
0"
#234
b11001 (
b11001 -
b11001 2
b11001 3
05
b0 6
b0 *
b0 +
b0 %
b11110 $
b11001 4
b11001 9
b1111011100000000 :
b11000 !
b11000 )
b11000 .
b11000 8
1"
#235
0"
#236
15
b11 6
b11000 (
b11000 -
b11000 2
b11 *
b11 +
b11000 3
b1 %
b11011 $
b11010 4
b11010 9
b1101111100001111 :
b11001 !
b11001 )
b11001 .
b11001 8
1"
#237
0"
#238
b11001 (
b11001 -
b11001 2
b11001 3
05
b0 6
b0 *
b0 +
b0 %
b11110 $
b11001 4
b11001 9
b1111011100000000 :
b11000 !
b11000 )
b11000 .
b11000 8
1"
#239
0"
#240
15
b11 6
b11000 (
b11000 -
b11000 2
b11 *
b11 +
b11000 3
b1 %
b11011 $
b11010 4
b11010 9
b1101111100001111 :
b11001 !
b11001 )
b11001 .
b11001 8
1"
#241
0"
#242
b11001 (
b11001 -
b11001 2
b11001 3
05
b0 6
b0 *
b0 +
b0 %
b11110 $
b11001 4
b11001 9
b1111011100000000 :
b11000 !
b11000 )
b11000 .
b11000 8
1"
#243
0"
#244
15
b11 6
b11000 (
b11000 -
b11000 2
b11 *
b11 +
b11000 3
b1 %
b11011 $
b11010 4
b11010 9
b1101111100001111 :
b11001 !
b11001 )
b11001 .
b11001 8
1"
#245
0"
#246
b11001 (
b11001 -
b11001 2
b11001 3
05
b0 6
b0 *
b0 +
b0 %
b11110 $
b11001 4
b11001 9
b1111011100000000 :
b11000 !
b11000 )
b11000 .
b11000 8
1"
#247
0"
#248
15
b11 6
b11000 (
b11000 -
b11000 2
b11 *
b11 +
b11000 3
b1 %
b11011 $
b11010 4
b11010 9
b1101111100001111 :
b11001 !
b11001 )
b11001 .
b11001 8
1"
#249
0"
#250
b11001 (
b11001 -
b11001 2
b11001 3
05
b0 6
b0 *
b0 +
b0 %
b11110 $
b11001 4
b11001 9
b1111011100000000 :
b11000 !
b11000 )
b11000 .
b11000 8
1"
#251
0"
#252
15
b11 6
b11000 (
b11000 -
b11000 2
b11 *
b11 +
b11000 3
b1 %
b11011 $
b11010 4
b11010 9
b1101111100001111 :
b11001 !
b11001 )
b11001 .
b11001 8
1"
#253
0"
#254
b11001 (
b11001 -
b11001 2
b11001 3
05
b0 6
b0 *
b0 +
b0 %
b11110 $
b11001 4
b11001 9
b1111011100000000 :
b11000 !
b11000 )
b11000 .
b11000 8
1"
#255
0"
#256
15
b11 6
b11000 (
b11000 -
b11000 2
b11 *
b11 +
b11000 3
b1 %
b11011 $
b11010 4
b11010 9
b1101111100001111 :
b11001 !
b11001 )
b11001 .
b11001 8
1"
#257
0"
#258
b11001 (
b11001 -
b11001 2
b11001 3
05
b0 6
b0 *
b0 +
b0 %
b11110 $
b11001 4
b11001 9
b1111011100000000 :
b11000 !
b11000 )
b11000 .
b11000 8
1"
#259
0"
#260
15
b11 6
b11000 (
b11000 -
b11000 2
b11 *
b11 +
b11000 3
b1 %
b11011 $
b11010 4
b11010 9
b1101111100001111 :
b11001 !
b11001 )
b11001 .
b11001 8
1"
#261
0"
#262
b11001 (
b11001 -
b11001 2
b11001 3
05
b0 6
b0 *
b0 +
b0 %
b11110 $
b11001 4
b11001 9
b1111011100000000 :
b11000 !
b11000 )
b11000 .
b11000 8
1"
#263
0"
#264
15
b11 6
b11000 (
b11000 -
b11000 2
b11 *
b11 +
b11000 3
b1 %
b11011 $
b11010 4
b11010 9
b1101111100001111 :
b11001 !
b11001 )
b11001 .
b11001 8
1"
#265
0"
