test.vcd
$date
	Fri Mar  1 01:30:12 2019
$end
$version
	Icarus Verilog
$end
$timescale
	1s
$end
$scope module test_jp $end
$var reg 16 ! pc [15:0] $end
$upscope $end
$enddefinitions $end
#0
$dumpvars
b0 !
$end
#1
b1 !
#3
b10 !
#5
b11 !
#7
b100 !
#9
b101 !
#11
b110 !
#13
b111 !
#15
b1000 !
#17
b1001 !
#19
b1010 !
#21
b1011 !
#23
b1100 !
#25
b1101 !
#27
b1110 !
#29
b1111 !
#31
b10000 !
#33
b10001 !
#35
b10010 !
#37
b10011 !
#39
b10100 !
#41
b10101 !
#43
b10110 !
#45
b10111 !
#47
b11000 !
#49
b11001 !
#51
b1001000110100 !
#61
b1001000110101 !
#63
b1001000110110 !
#65
b1001000110111 !
#67
b1001000111000 !
#69
b1001000111001 !
#71
b1001000111010 !
#73
b1001000111011 !
#75
b1001000111100 !
#77
b1001000111101 !
#79
b1001000111110 !
#81
b1001000110100 !
#91
b1001000110101 !
#93
b1001000110110 !
#95
b1001000110111 !
#97
b1001000111000 !
#99
b1001000111001 !
#101
b1001000111010 !
#103
b1001000110100 !
#113
b1001000110101 !
#115
b1001000110110 !
#117
b1001000110111 !
#119
b1001000111000 !
#121
b1001000111001 !
#123
b11111111 !
#133
b111111110000 !
#143
b111111110001 !
#145
b111111110010 !
#147
b111111110011 !
#149
b111111110100 !
#151
b111111110101 !
#153
b111111110110 !
#155
b111111110111 !
#157
b111111111000 !
#159
b111111111001 !
#161
b111111111010 !
#163
b111111111011 !
#165
b111111111100 !
#167
b111111111101 !
#169
b111111111110 !
#171
b111111111111 !
#173
b1000000000000 !
#175
b1000000000001 !
#177
b1000000000010 !
#179
b1000000000011 !
#181
b1000000000100 !
#183
b1000000000101 !
#185
b1000000000110 !
#187
b1000000000111 !
#189
b1000000001000 !
#191
b1000000001001 !
#193
b1000000001010 !
#195
b1000000001011 !
#197
b1000000001100 !
#199
b1000000001101 !
#201
b1000000001110 !
#203
b1000000001111 !
#205
b1000000010000 !
#207
b1000000010001 !
#209
b1000000010010 !
#211
b1000000010011 !
#213
b1000000010100 !
#215
b1000000010101 !
#217
b1000000010110 !
#219
b1000000010111 !
#221
b1000000011000 !
#223
b1000000011001 !
#225
b1000000011010 !
#227
b1000000011011 !
#229
b1000000011100 !
#231
b1000000011101 !
#233
b1000000011110 !
#235
b1000000011111 !
#237
b1000000100000 !
#239
b1000000100001 !
#241
b1000000100010 !
#243
b1000000100011 !
#245
b1000000100100 !
#247
b1000000100101 !
#249
b1000000100110 !
#251
b1000000100111 !
#253
b1000000101000 !
#255
b1000000101001 !
#257
b1000000101010 !
#259
b1000000101011 !
#261
b1000000101100 !
#263
b1000000101101 !
#265
b1000000101110 !
#267
b1000000101111 !
#269
b1000000110000 !
#271
b1000000110001 !
#273
b1000000110010 !
#275
b1000000110011 !
#277
b1000000110100 !
#279
b1000000110101 !
#281
b1000000110110 !
#283
b1000000110111 !
#285
b1000000111000 !
#287
b1000000111001 !
#289
b1000000111010 !
#291
b1000000111011 !
#293
b1000000111100 !
#295
b1000000111101 !
#297
b1000000111110 !
#299
b1000000111111 !
#301
b1000001000000 !
#303
b1000001000001 !
#305
b1000001000010 !
#307
b1000001000011 !
#309
b1000001000100 !
#311
b1000001000101 !
#313
b1000001000110 !
#315
b1000001000111 !
#317
b1000001001000 !
#319
b1000001001001 !
#321
b1000001001010 !
#323
b1000001001011 !
#325
b1000001001100 !
#327
b1000001001101 !
#329
b1000001001110 !
#331
b1000001001111 !
#333
b1000001010000 !
#335
b1000001010001 !
#337
b1000001010010 !
#339
b1000001010011 !
#341
b1000001010100 !
#343
b1000001010101 !
#345
b1000001010110 !
#347
b1000001010111 !
#349
b1000001011000 !
#351
b1000001011001 !
#353
b1000001011010 !
#355
b1000001011011 !
#357
b1000001011100 !
#359
b1000001011101 !
#361
b1000001011110 !
#363
b1000001011111 !
#365
b1000001100000 !
#367
b1000001100001 !
#369
b1000001100010 !
#371
b1000001100011 !
#373
b1000001100100 !
#375
b1000001100101 !
#377
b1000001100110 !
#379
b1000001100111 !
#381
b1000001101000 !
#383
b1000001101001 !
#385
b1000001101010 !
#387
b1000001101011 !
#389
b1000001101100 !
#391
b1000001101101 !
#393
b1000001101110 !
#395
b1000001101111 !
#397
b1000001110000 !
#399
b1000001110001 !
#401
b1000001110010 !
#403
b1000001110011 !
#405
b1000001110100 !
#407
b1000001110101 !
#409
b1000001110110 !
#411
b1000001110111 !
#413
b1000001111000 !
#415
b1000001111001 !
#417
b1000001111010 !
#419
b1000001111011 !
#421
b1000001111100 !
#423
b1000001111101 !
#425
b1000001111110 !
#427
b1000001111111 !
#429
b1000010000000 !
#431
b1000010000001 !
#433
b1000010000010 !
#435
b1000010000011 !
#437
b1000010000100 !
#439
b1000010000101 !
#441
b1000010000110 !
#443
b1000010000111 !
#445
b1000010001000 !
#447
b1000010001001 !
#449
b1000010001010 !
#451
b1000010001011 !
#453
b1000010001100 !
#455
b1000010001101 !
#457
b1000010001110 !
#459
b1000010001111 !
#461
b1000010010000 !
#463
b1000010010001 !
#465
b1000010010010 !
#467
b1000010010011 !
#469
b1000010010100 !
#471
b1000010010101 !
#473
b1000010010110 !
#475
b1000010010111 !
#477
b1000010011000 !
#479
b1000010011001 !
#481
b1000010011010 !
#483
b1000010011011 !
#485
b1000010011100 !
#487
b1000010011101 !
#489
b1000010011110 !
#491
b1000010011111 !
#493
b1000010100000 !
#495
b1000010100001 !
#497
b1000010100010 !
#499
b1000010100011 !
#501
b1000010100100 !
#503
b1000010100101 !
#505
b1000010100110 !
#507
b1000010100111 !
#509
b1000010101000 !
#511
b1000010101001 !
#513
b1000010101010 !
#515
b1000010101011 !
#517
b1000010101100 !
#519
b1000010101101 !
#521
b1000010101110 !
#523
b1000010101111 !
#525
b1000010110000 !
#527
b1000010110001 !
#529
b1000010110010 !
#531
b1000010110011 !
#533
b1000010110100 !
#535
b1000010110101 !
#537
b1000010110110 !
#539
b1000010110111 !
#541
b1000010111000 !
#543
b1000010111001 !
#545
b1000010111010 !
#547
b1000010111011 !
#549
b1000010111100 !
#551
b1000010111101 !
#553
b1000010111110 !
#555
b1000010111111 !
#557
b1000011000000 !
#559
b1000011000001 !
#561
b1000011000010 !
#563
b1000011000011 !
#565
b1000011000100 !
#567
b1000011000101 !
#569
b1000011000110 !
#571
b1000011000111 !
#573
b1000011001000 !
#575
b1000011001001 !
#577
b1000011001010 !
#579
b1000011001011 !
#581
b1000011001100 !
#583
b1000011001101 !
#585
b1000011001110 !
#587
b1000011001111 !
#589
b1000011010000 !
#591
b1000011010001 !
#593
b1000011010010 !
#595
b1000011010011 !
#597
b1000011010100 !
#599
b1000011010101 !
#601
b1000011010110 !
#603
b1000011010111 !
#605
b1000011011000 !
#607
b1000011011001 !
#609
b1000011011010 !
#611
b1000011011011 !
#613
b1000011011100 !
#615
b1000011011101 !
#617
b1000011011110 !
#619
b1000011011111 !
#621
b1000011100000 !
#623
b1000011100001 !
#625
b1000011100010 !
#627
b1000011100011 !
#629
b1000011100100 !
#631
b1000011100101 !
#633
b1000011100110 !
#635
b1000011100111 !
#637
b1000011101000 !
#639
b1000011101001 !
#641
b1000011101010 !
#643
b1000011101011 !
#645
b1000011101100 !
#647
b1000011101101 !
#649
b1000011101110 !
#651
b1000011101111 !
#653
b1000011110000 !
#655
b1000011110001 !
#657
b1000011110010 !
#659
b1000011110011 !
#661
b1000011110100 !
#663
b1000011110101 !
#665
b1000011110110 !
#667
b1000011110111 !
#669
b1000011111000 !
#671
b1000011111001 !
#673
b1000011111010 !
#675
b1000011111011 !
#677
b1000011111100 !
#679
b1000011111101 !
#681
b1000011111110 !
#683
b1000011111111 !
#685
b1000100000000 !
#687
b1000100000001 !
#689
b1000100000010 !
#691
b1000100000011 !
#693
b1000100000100 !
#695
b1000100000101 !
#697
b1000100000110 !
#699
b1000100000111 !
#701
b1000100001000 !
#703
b1000100001001 !
#705
b1000100001010 !
#707
b1000100001011 !
#709
b1000100001100 !
#711
b1000100001101 !
#713
b1000100001110 !
#715
b1000100001111 !
#717
b1000100010000 !
#719
b1000100010001 !
#721
b1000100010010 !
#723
b1000100010011 !
#725
b1000100010100 !
#727
b1000100010101 !
#729
b1000100010110 !
#731
b1000100010111 !
#733
b1000100011000 !
#735
b1000100011001 !
#737
b1000100011010 !
#739
b1000100011011 !
#741
b1000100011100 !
#743
b1000100011101 !
#745
b1000100011110 !
#747
b1000100011111 !
#749
b1000100100000 !
#751
b1000100100001 !
#753
b1000100100010 !
#755
b1000100100011 !
#757
b1000100100100 !
#759
b1000100100101 !
#761
b1000100100110 !
#763
b1000100100111 !
#765
b1000100101000 !
#767
b1000100101001 !
#769
b1000100101010 !
#771
b1000100101011 !
#773
b1000100101100 !
#775
b1000100101101 !
#777
b1000100101110 !
#779
b1000100101111 !
#781
b1000100110000 !
#783
b1000100110001 !
#785
b1000100110010 !
#787
b1000100110011 !
#789
b1000100110100 !
#791
b1000100110101 !
#793
b1000100110110 !
#795
b1000100110111 !
#797
b1000100111000 !
#799
b1000100111001 !
#801
b1000100111010 !
#803
b1000100111011 !
#805
b1000100111100 !
#807
b1000100111101 !
#809
b1000100111110 !
#811
b1000100111111 !
#813
b1000101000000 !
#815
b1000101000001 !
#817
b1000101000010 !
#819
b1000101000011 !
#821
b1000101000100 !
#823
b1000101000101 !
#825
b1000101000110 !
#827
b1000101000111 !
#829
b1000101001000 !
#831
b1000101001001 !
#833
b1000101001010 !
#835
b1000101001011 !
#837
b1000101001100 !
#839
b1000101001101 !
#841
b1000101001110 !
#843
b1000101001111 !
#845
b1000101010000 !
#847
b1000101010001 !
#849
b1000101010010 !
#851
b1000101010011 !
#853
b1000101010100 !
#855
b1000101010101 !
#857
b1000101010110 !
#859
b1000101010111 !
#861
b1000101011000 !
#863
b1000101011001 !
#865
b1000101011010 !
#867
b1000101011011 !
#869
b1000101011100 !
#871
b1000101011101 !
#873
b1000101011110 !
#875
b1000101011111 !
#877
b1000101100000 !
#879
b1000101100001 !
#881
b1000101100010 !
#883
b1000101100011 !
#885
b1000101100100 !
#887
b1000101100101 !
#889
b1000101100110 !
#891
b1000101100111 !
#893
b1000101101000 !
#895
b1000101101001 !
#897
b1000101101010 !
#899
b1000101101011 !
#901
b1000101101100 !
#903
b1000101101101 !
#905
b1000101101110 !
#907
b1000101101111 !
#909
b1000101110000 !
#911
b1000101110001 !
#913
b1000101110010 !
#915
b1000101110011 !
#917
b1000101110100 !
#919
b1000101110101 !
#921
b1000101110110 !
#923
b1000101110111 !
#925
b1000101111000 !
#927
b1000101111001 !
#929
b1000101111010 !
#931
b1000101111011 !
#933
b1000101111100 !
#935
b1000101111101 !
#937
b1000101111110 !
#939
b1000101111111 !
#941
b1000110000000 !
#943
b1000110000001 !
#945
b1000110000010 !
#947
b1000110000011 !
#949
b1000110000100 !
#951
b1000110000101 !
#953
b1000110000110 !
#955
b1000110000111 !
#957
b1000110001000 !
#959
b1000110001001 !
#961
b1000110001010 !
#963
b1000110001011 !
#965
b1000110001100 !
#967
b1000110001101 !
#969
b1000110001110 !
#971
b1000110001111 !
#973
b1000110010000 !
#975
b1000110010001 !
#977
b1000110010010 !
#979
b1000110010011 !
#981
b1000110010100 !
#983
b1000110010101 !
#985
b1000110010110 !
#987
b1000110010111 !
#989
b1000110011000 !
#991
b1000110011001 !
#993
b1000110011010 !
#995
b1000110011011 !
#997
b1000110011100 !
#999
b1000110011101 !
#1001
b1000110011110 !
#1003
b1000110011111 !
#1005
b1000110100000 !
#1007
b1000110100001 !
#1009
b1000110100010 !
#1011
b1000110100011 !
#1013
b1000110100100 !
#1015
b1000110100101 !
#1017
b1000110100110 !
#1019
b1000110100111 !
#1021
b1000110101000 !
#1023
b1000110101001 !
#1025
b1000110101010 !
#1027
b1000110101011 !
#1029
b1000110101100 !
#1031
b1000110101101 !
#1033
b1000110101110 !
#1035
b1000110101111 !
#1037
b1000110110000 !
#1039
b1000110110001 !
#1041
b1000110110010 !
#1043
b1000110110011 !
#1045
b1000110110100 !
#1047
b1000110110101 !
#1049
b1000110110110 !
#1051
b1000110110111 !
#1053
b1000110111000 !
#1055
b1000110111001 !
#1057
b1000110111010 !
#1059
b1000110111011 !
#1061
b1000110111100 !
#1063
b1000110111101 !
#1065
b1000110111110 !
#1067
b1000110111111 !
#1069
b1000111000000 !
#1071
b1000111000001 !
#1073
b1000111000010 !
#1075
b1000111000011 !
#1077
b1000111000100 !
#1079
b1000111000101 !
#1081
b1000111000110 !
#1083
b1000111000111 !
#1085
b1000111001000 !
#1087
b1000111001001 !
#1089
b1000111001010 !
#1091
b1000111001011 !
#1093
b1000111001100 !
#1095
b1000111001101 !
#1097
b1000111001110 !
#1099
b1000111001111 !
#1101
b1000111010000 !
#1103
b1000111010001 !
#1105
b1000111010010 !
#1107
b1000111010011 !
#1109
b1000111010100 !
#1111
b1000111010101 !
#1113
b1000111010110 !
#1115
b1000111010111 !
#1117
b1000111011000 !
#1119
b1000111011001 !
#1121
b1000111011010 !
#1123
b1000111011011 !
#1125
b1000111011100 !
#1127
b1000111011101 !
#1129
b1000111011110 !
#1131
b1000111011111 !
#1133
b1000111100000 !
#1135
b1000111100001 !
#1137
b1000111100010 !
#1139
b1000111100011 !
#1141
b1000111100100 !
#1143
b1000111100101 !
#1145
b1000111100110 !
#1147
b1000111100111 !
#1149
b1000111101000 !
#1151
b1000111101001 !
#1153
b1000111101010 !
#1155
b1000111101011 !
#1157
b1000111101100 !
#1159
b1000111101101 !
#1161
b1000111101110 !
#1163
b1000111101111 !
#1165
b1000111110000 !
#1167
b1000111110001 !
#1169
b1000111110010 !
#1171
b1000111110011 !
#1173
b1000111110100 !
#1175
b1000111110101 !
#1177
b1000111110110 !
#1179
b1000111110111 !
#1181
b1000111111000 !
#1183
b1000111111001 !
#1185
b1000111111010 !
#1187
b1000111111011 !
#1189
b1000111111100 !
#1191
b1000111111101 !
#1193
b1000111111110 !
#1195
b1000111111111 !
#1197
b1001000000000 !
#1199
b1001000000001 !
#1201
b1001000000010 !
#1203
b1001000000011 !
#1205
b1001000000100 !
#1207
b1001000000101 !
#1209
b1001000000110 !
#1211
b1001000000111 !
#1213
b1001000001000 !
#1215
b1001000001001 !
#1217
b1001000001010 !
#1219
b1001000001011 !
#1221
b1001000001100 !
#1223
b1001000001101 !
#1225
b1001000001110 !
#1227
b1001000001111 !
#1229
b1001000010000 !
#1231
b1001000010001 !
#1233
b1001000010010 !
#1235
b1001000010011 !
#1237
b1001000010100 !
#1239
b1001000010101 !
#1241
b1001000010110 !
#1243
b1001000010111 !
#1245
b1001000011000 !
#1247
b1001000011001 !
#1249
b1001000011010 !
#1251
b1001000011011 !
#1253
b1001000011100 !
#1255
b1001000011101 !
#1257
b1001000011110 !
#1259
b1001000011111 !
#1261
b1001000100000 !
#1263
b1001000100001 !
#1265
b1001000100010 !
#1267
b1001000100011 !
#1269
b1001000100100 !
#1271
b1001000100101 !
#1273
b1001000100110 !
#1275
b1001000100111 !
#1277
b1001000101000 !
#1279
b1001000101001 !
#1281
b1001000101010 !
#1283
b1001000101011 !
#1285
b1001000101100 !
#1287
b1001000101101 !
#1289
b1001000101110 !
#1291
b1001000101111 !
#1293
b1001000110000 !
#1295
b1001000110001 !
#1297
b1001000110010 !
#1299
b1001000110011 !
#1301
b1001000110100 !
#1303
b1001000110101 !
#1305
b1001000110110 !
#1307
b1001000110111 !
#1309
b1001000111000 !
#1311
b1001000111001 !
#1313
b1001000111010 !
#1315
b1001000111011 !
#1317
b1001000111100 !
#1319
b1001000111101 !
#1321
b1001000111110 !
#1323
b1001000111111 !
#1325
b1001001000000 !
#1327
b1001001000001 !
#1329
b1001001000010 !
#1331
b1001001000011 !
#1333
b1001001000100 !
#1335
b1001001000101 !
#1337
b1001001000110 !
#1339
b1001001000111 !
#1341
b1001001001000 !
#1343
b1001001001001 !
#1345
b1001001001010 !
#1347
b1001001001011 !
#1349
b1001001001100 !
#1351
b1001001001101 !
#1353
b1001001001110 !
#1355
b1001001001111 !
#1357
b1001001010000 !
#1359
b1001001010001 !
#1361
b1001001010010 !
#1363
b1001001010011 !
#1365
b1001001010100 !
#1367
b1001001010101 !
#1369
b1001001010110 !
#1371
b1001001010111 !
#1373
b1001001011000 !
#1375
b1001001011001 !
#1377
b1001001011010 !
#1379
b1001001011011 !
#1381
b1001001011100 !
#1383
b1001001011101 !
#1385
b1001001011110 !
#1387
b1001001011111 !
#1389
b1001001100000 !
#1391
b1001001100001 !
#1393
b1001001100010 !
#1395
b1001001100011 !
#1397
b1001001100100 !
#1399
b1001001100101 !
#1401
b1001001100110 !
#1403
b1001001100111 !
#1405
b1001001101000 !
#1407
b1001001101001 !
#1409
b1001001101010 !
#1411
b1001001101011 !
#1413
b1001001101100 !
#1415
b1001001101101 !
#1417
b1001001101110 !
#1419
b1001001101111 !
#1421
b1001001110000 !
#1423
b1001001110001 !
#1425
b1001001110010 !
#1427
b1001001110011 !
#1429
b1001001110100 !
#1431
b1001001110101 !
#1433
b1001001110110 !
#1435
b1001001110111 !
#1437
b1001001111000 !
#1439
b1001001111001 !
#1441
b1001001111010 !
#1443
b1001001111011 !
#1445
b1001001111100 !
#1447
b1001001111101 !
#1449
b1001001111110 !
#1451
b1001001111111 !
#1453
b1001010000000 !
#1455
b1001010000001 !
#1457
b1001010000010 !
#1459
b1001010000011 !
#1461
b1001010000100 !
#1463
b1001010000101 !
#1465
b1001010000110 !
#1467
b1001010000111 !
#1469
b1001010001000 !
#1471
b1001010001001 !
#1473
b1001010001010 !
#1475
b1001010001011 !
#1477
b1001010001100 !
#1479
b1001010001101 !
#1481
b1001010001110 !
#1483
b1001010001111 !
#1485
b1001010010000 !
#1487
b1001010010001 !
#1489
b1001010010010 !
#1491
b1001010010011 !
#1493
b1001010010100 !
#1495
b1001010010101 !
#1497
b1001010010110 !
#1499
b1001010010111 !
#1501
b1001010011000 !
#1503
b1001010011001 !
#1505
b1001010011010 !
#1507
b1001010011011 !
#1509
b1001010011100 !
#1511
b1001010011101 !
#1513
b1001010011110 !
#1515
b1001010011111 !
#1517
b1001010100000 !
#1519
b1001010100001 !
#1521
b1001010100010 !
#1523
b1001010100011 !
#1525
b1001010100100 !
#1527
b1001010100101 !
#1529
b1001010100110 !
#1531
b1001010100111 !
#1533
b1001010101000 !
#1535
b1001010101001 !
#1537
b1001010101010 !
#1539
b1001010101011 !
#1541
b1001010101100 !
#1543
b1001010101101 !
#1545
b1001010101110 !
#1547
b1001010101111 !
#1549
b1001010110000 !
#1551
b1001010110001 !
#1553
b1001010110010 !
#1555
b1001010110011 !
#1557
b1001010110100 !
#1559
b1001010110101 !
#1561
b1001010110110 !
#1563
b1001010110111 !
#1565
b1001010111000 !
#1567
b1001010111001 !
#1569
b1001010111010 !
#1571
b1001010111011 !
#1573
b1001010111100 !
#1575
b1001010111101 !
#1577
b1001010111110 !
#1579
b1001010111111 !
#1581
b1001011000000 !
#1583
b1001011000001 !
#1585
b1001011000010 !
#1587
b1001011000011 !
#1589
b1001011000100 !
#1591
b1001011000101 !
#1593
b1001011000110 !
#1595
b1001011000111 !
#1597
b1001011001000 !
#1599
b1001011001001 !
#1601
b1001011001010 !
#1603
b1001011001011 !
#1605
b1001011001100 !
#1607
b1001011001101 !
#1609
b1001011001110 !
#1611
b1001011001111 !
#1613
b1001011010000 !
#1615
b1001011010001 !
#1617
b1001011010010 !
#1619
b1001011010011 !
#1621
b1001011010100 !
#1623
b1001011010101 !
#1625
b1001011010110 !
#1627
b1001011010111 !
#1629
b1001011011000 !
#1631
b1001011011001 !
#1633
b1001011011010 !
#1635
b1001011011011 !
#1637
b1001011011100 !
#1639
b1001011011101 !
#1641
b1001011011110 !
#1643
b1001011011111 !
#1645
b1001011100000 !
#1647
b1001011100001 !
#1649
b1001011100010 !
#1651
b1001011100011 !
#1653
b1001011100100 !
#1655
b1001011100101 !
#1657
b1001011100110 !
#1659
b1001011100111 !
#1661
b1001011101000 !
#1663
b1001011101001 !
#1665
b1001011101010 !
#1667
b1001011101011 !
#1669
b1001011101100 !
#1671
b1001011101101 !
#1673
b1001011101110 !
#1675
b1001011101111 !
#1677
b1001011110000 !
#1679
b1001011110001 !
#1681
b1001011110010 !
#1683
b1001011110011 !
#1685
b1001011110100 !
#1687
b1001011110101 !
#1689
b1001011110110 !
#1691
b1001011110111 !
#1693
b1001011111000 !
#1695
b1001011111001 !
#1697
b1001011111010 !
#1699
b1001011111011 !
#1701
b1001011111100 !
#1703
b1001011111101 !
#1705
b1001011111110 !
#1707
b1001011111111 !
#1709
b1001100000000 !
#1711
b1001100000001 !
#1713
b1001100000010 !
#1715
b1001100000011 !
#1717
b1001100000100 !
#1719
b1001100000101 !
#1721
b1001100000110 !
#1723
b1001100000111 !
#1725
b1001100001000 !
#1727
b1001100001001 !
#1729
b1001100001010 !
#1731
b1001100001011 !
#1733
b1001100001100 !
#1735
b1001100001101 !
#1737
b1001100001110 !
#1739
b1001100001111 !
#1741
b1001100010000 !
#1743
b1001100010001 !
#1745
b1001100010010 !
#1747
b1001100010011 !
#1749
b1001100010100 !
#1751
b1001100010101 !
#1753
b1001100010110 !
#1755
b1001100010111 !
#1757
b1001100011000 !
#1759
b1001100011001 !
#1761
b1001100011010 !
#1763
b1001100011011 !
#1765
b1001100011100 !
#1767
b1001100011101 !
#1769
b1001100011110 !
#1771
b1001100011111 !
#1773
b1001100100000 !
#1775
b1001100100001 !
#1777
b1001100100010 !
#1779
b1001100100011 !
#1781
b1001100100100 !
#1783
b1001100100101 !
#1785
b1001100100110 !
#1787
b1001100100111 !
#1789
b1001100101000 !
#1791
b1001100101001 !
#1793
b1001100101010 !
#1795
b1001100101011 !
#1797
b1001100101100 !
#1799
b1001100101101 !
#1801
b1001100101110 !
#1803
b1001100101111 !
#1805
b1001100110000 !
#1807
b1001100110001 !
#1809
b1001100110010 !
#1811
b1001100110011 !
#1813
b1001100110100 !
#1815
b1001100110101 !
#1817
b1001100110110 !
#1819
b1001100110111 !
#1821
b1001100111000 !
#1823
b1001100111001 !
#1825
b1001100111010 !
#1827
b1001100111011 !
#1829
b1001100111100 !
#1831
b1001100111101 !
#1833
b1001100111110 !
#1835
b1001100111111 !
#1837
b1001101000000 !
#1839
b1001101000001 !
#1841
b1001101000010 !
#1843
b1001101000011 !
#1845
b1001101000100 !
#1847
b1001101000101 !
#1849
b1001101000110 !
#1851
b1001101000111 !
#1853
b1001101001000 !
#1855
b1001101001001 !
#1857
b1001101001010 !
#1859
b1001101001011 !
#1861
b1001101001100 !
#1863
b1001101001101 !
#1865
b1001101001110 !
#1867
b1001101001111 !
#1869
b1001101010000 !
#1871
b1001101010001 !
#1873
b1001101010010 !
#1875
b1001101010011 !
#1877
b1001101010100 !
#1879
b1001101010101 !
#1881
b1001101010110 !
#1883
b1001101010111 !
#1885
b1001101011000 !
#1887
b1001101011001 !
#1889
b1001101011010 !
#1891
b1001101011011 !
#1893
b1001101011100 !
#1895
b1001101011101 !
#1897
b1001101011110 !
#1899
b1001101011111 !
#1901
b1001101100000 !
#1903
b1001101100001 !
#1905
b1001101100010 !
#1907
b1001101100011 !
#1909
b1001101100100 !
#1911
b1001101100101 !
#1913
b1001101100110 !
#1915
b1001101100111 !
#1917
b1001101101000 !
#1919
b1001101101001 !
#1921
b1001101101010 !
#1923
b1001101101011 !
#1925
b1001101101100 !
#1927
b1001101101101 !
#1929
b1001101101110 !
#1931
b1001101101111 !
#1933
b1001101110000 !
#1935
b1001101110001 !
#1937
b1001101110010 !
#1939
b1001101110011 !
#1941
b1001101110100 !
#1943
b1001101110101 !
#1945
b1001101110110 !
#1947
b1001101110111 !
#1949
b1001101111000 !
#1951
b1001101111001 !
#1953
b1001101111010 !
#1955
b1001101111011 !
#1957
b1001101111100 !
#1959
b1001101111101 !
#1961
b1001101111110 !
#1963
b1001101111111 !
#1965
b1001110000000 !
#1967
b1001110000001 !
#1969
b1001110000010 !
#1971
b1001110000011 !
#1973
b1001110000100 !
#1975
b1001110000101 !
#1977
b1001110000110 !
#1979
b1001110000111 !
#1981
b1001110001000 !
#1983
b1001110001001 !
#1985
b1001110001010 !
#1987
b1001110001011 !
#1989
b1001110001100 !
#1991
b1001110001101 !
#1993
b1001110001110 !
#1995
b1001110001111 !
#1997
b1001110010000 !
#1999
b1001110010001 !
#2001
b1001110010010 !
#2003
b1001110010011 !
#2005
b1001110010100 !
#2007
b1001110010101 !
#2009
b1001110010110 !
#2011
b1001110010111 !
#2013
b1001110011000 !
#2015
b1001110011001 !
#2017
b1001110011010 !
#2019
b1001110011011 !
#2021
b1001110011100 !
#2023
b1001110011101 !
#2025
b1001110011110 !
#2027
b1001110011111 !
#2029
b1001110100000 !
#2031
b1001110100001 !
#2033
b1001110100010 !
#2035
b1001110100011 !
#2037
b1001110100100 !
#2039
b1001110100101 !
#2041
b1001110100110 !
#2043
b1001110100111 !
#2045
b1001110101000 !
#2047
b1001110101001 !
#2049
b1001110101010 !
#2051
b1001110101011 !
#2053
b1001110101100 !
#2055
b1001110101101 !
#2057
b1001110101110 !
#2059
b1001110101111 !
#2061
b1001110110000 !
#2063
b1001110110001 !
#2065
b1001110110010 !
#2067
b1001110110011 !
#2069
b1001110110100 !
#2071
b1001110110101 !
#2073
b1001110110110 !
#2075
b1001110110111 !
#2077
b1001110111000 !
#2079
b1001110111001 !
#2081
b1001110111010 !
#2083
b1001110111011 !
#2085
b1001110111100 !
#2087
b1001110111101 !
#2089
b1001110111110 !
#2091
b1001110111111 !
#2093
b1001111000000 !
#2095
b1001111000001 !
#2097
b1001111000010 !
#2099
b1001111000011 !
#2101
b1001111000100 !
#2103
b1001111000101 !
#2105
b1001111000110 !
#2107
b1001111000111 !
#2109
b1001111001000 !
#2111
b1001111001001 !
#2113
b1001111001010 !
#2115
b1001111001011 !
#2117
b1001111001100 !
#2119
b1001111001101 !
#2121
b1001111001110 !
#2123
b1001111001111 !
#2125
b1001111010000 !
#2127
b1001111010001 !
#2129
b1001111010010 !
#2131
b1001111010011 !
#2133
b1001111010100 !
#2135
b1001111010101 !
#2137
b1001111010110 !
#2139
b1001111010111 !
#2141
b1001111011000 !
#2143
b1001111011001 !
#2145
b1001111011010 !
#2147
b1001111011011 !
#2149
b1001111011100 !
#2151
b1001111011101 !
#2153
b1001111011110 !
#2155
b1001111011111 !
#2157
b1001111100000 !
#2159
b1001111100001 !
#2161
b1001111100010 !
#2163
b1001111100011 !
#2165
b1001111100100 !
#2167
b1001111100101 !
#2169
b1001111100110 !
#2171
b1001111100111 !
#2173
b1001111101000 !
#2175
b1001111101001 !
#2177
b1001111101010 !
#2179
b1001111101011 !
#2181
b1001111101100 !
#2183
b1001111101101 !
#2185
b1001111101110 !
#2187
b1001111101111 !
#2189
b1001111110000 !
#2191
b1001111110001 !
#2193
b1001111110010 !
#2195
b1001111110011 !
#2197
b1001111110100 !
#2199
b1001111110101 !
#2201
b1001111110110 !
#2203
b1001111110111 !
#2205
b1001111111000 !
#2207
b1001111111001 !
#2209
b1001111111010 !
#2211
b1001111111011 !
#2213
b1001111111100 !
#2215
b1001111111101 !
#2217
b1001111111110 !
#2219
b1001111111111 !
#2221
b1010000000000 !
#2223
b1010000000001 !
#2225
b1010000000010 !
#2227
b1010000000011 !
#2229
b1010000000100 !
#2231
b1010000000101 !
#2233
b1010000000110 !
#2235
b1010000000111 !
#2237
b1010000001000 !
#2239
b1010000001001 !
#2241
b1010000001010 !
#2243
b1010000001011 !
#2245
b1010000001100 !
#2247
b1010000001101 !
#2249
b1010000001110 !
#2251
b1010000001111 !
#2253
b1010000010000 !
#2255
b1010000010001 !
#2257
b1010000010010 !
#2259
b1010000010011 !
#2261
b1010000010100 !
#2263
b1010000010101 !
#2265
b1010000010110 !
#2267
b1010000010111 !
#2269
b1010000011000 !
#2271
b1010000011001 !
#2273
b1010000011010 !
#2275
b1010000011011 !
#2277
b1010000011100 !
#2279
b1010000011101 !
#2281
b1010000011110 !
#2283
b1010000011111 !
#2285
b1010000100000 !
#2287
b1010000100001 !
#2289
b1010000100010 !
#2291
b1010000100011 !
#2293
b1010000100100 !
#2295
b1010000100101 !
#2297
b1010000100110 !
#2299
b1010000100111 !
#2301
b1010000101000 !
#2303
b1010000101001 !
#2305
b1010000101010 !
#2307
b1010000101011 !
#2309
b1010000101100 !
#2311
b1010000101101 !
#2313
b1010000101110 !
#2315
b1010000101111 !
#2317
b1010000110000 !
#2319
b1010000110001 !
#2321
b1010000110010 !
#2323
b1010000110011 !
#2325
b1010000110100 !
#2327
b1010000110101 !
#2329
b1010000110110 !
#2331
b1010000110111 !
#2333
b1010000111000 !
#2335
b1010000111001 !
#2337
b1010000111010 !
#2339
b1010000111011 !
#2341
b1010000111100 !
#2343
b1010000111101 !
#2345
b1010000111110 !
#2347
b1010000111111 !
#2349
b1010001000000 !
#2351
b1010001000001 !
#2353
b1010001000010 !
#2355
b1010001000011 !
#2357
b1010001000100 !
#2359
b1010001000101 !
#2361
b1010001000110 !
#2363
b1010001000111 !
#2365
b1010001001000 !
#2367
b1010001001001 !
#2369
b1010001001010 !
#2371
b1010001001011 !
#2373
b1010001001100 !
#2375
b1010001001101 !
#2377
b1010001001110 !
#2379
b1010001001111 !
#2381
b1010001010000 !
#2383
b1010001010001 !
#2385
b1010001010010 !
#2387
b1010001010011 !
#2389
b1010001010100 !
#2391
b1010001010101 !
#2393
b1010001010110 !
#2395
b1010001010111 !
#2397
b1010001011000 !
#2399
b1010001011001 !
#2401
b1010001011010 !
#2403
b1010001011011 !
#2405
b1010001011100 !
#2407
b1010001011101 !
#2409
b1010001011110 !
#2411
b1010001011111 !
#2413
b1010001100000 !
#2415
b1010001100001 !
